[DEBUG] 3072:p.c:22:main:HOLA
[ERROR] 3072:p.c:23:main:CARACOLA
[DEBUG] 3072:p.c:24:main:YEEE
[DEBUG] 1812:p.c:22:main:HOLA
[ERROR] 1812:p.c:23:main:CARACOLA
[DEBUG] 1812:p.c:24:main:YEEE
[DEBUG] [10/08/2006 09/33/36]:2852:p.c:22:main:HOLA
[ERROR] [10/08/2006 09/33/36]:2852:p.c:23:main:CARACOLA
[DEBUG] [10/08/2006 09/33/36]:2852:p.c:24:main:YEEE
[DEBUG] [10/08/2006 09/33/44]:2860:p.c:22:main:HOLA
[ERROR] [10/08/2006 09/33/44]:2860:p.c:23:main:CARACOLA
[DEBUG] [10/08/2006 09/33/44]:2860:p.c:24:main:YEEE
[DEBUG] [10/08/2006 09/33/45]:2912:p.c:22:main:HOLA
[ERROR] [10/08/2006 09/33/45]:2912:p.c:23:main:CARACOLA
[DEBUG] [10/08/2006 09/33/45]:2912:p.c:24:main:YEEE
[DEBUG] [10/08/2006 09/33/45]:2900:p.c:22:main:HOLA
[ERROR] [10/08/2006 09/33/45]:2900:p.c:23:main:CARACOLA
[DEBUG] [10/08/2006 09/33/45]:2900:p.c:24:main:YEEE
[DEBUG] [10/08/2006 09/33/46]:2896:p.c:22:main:HOLA
[ERROR] [10/08/2006 09/33/46]:2896:p.c:23:main:CARACOLA
[DEBUG] [10/08/2006 09/33/46]:2896:p.c:24:main:YEEE
[DEBUG] [10/08/2006 09/33/46]:2908:p.c:22:main:HOLA
[ERROR] [10/08/2006 09/33/46]:2908:p.c:23:main:CARACOLA
[DEBUG] [10/08/2006 09/33/46]:2908:p.c:24:main:YEEE
[DEBUG] [10/08/2006 09/33/46]:2876:p.c:22:main:HOLA
[ERROR] [10/08/2006 09/33/46]:2876:p.c:23:main:CARACOLA
[DEBUG] [10/08/2006 09/33/46]:2876:p.c:24:main:YEEE
[DEBUG] [10/08/2006 09/33/46]:2588:p.c:22:main:HOLA
[ERROR] [10/08/2006 09/33/46]:2588:p.c:23:main:CARACOLA
[DEBUG] [10/08/2006 09/33/46]:2588:p.c:24:main:YEEE
[DEBUG] [10/08/2006 09/33/47]:2972:p.c:22:main:HOLA
[ERROR] [10/08/2006 09/33/47]:2972:p.c:23:main:CARACOLA
[DEBUG] [10/08/2006 09/33/47]:2972:p.c:24:main:YEEE
[DEBUG] [10/08/2006 09/33/47]:1788:p.c:22:main:HOLA
[ERROR] [10/08/2006 09/33/47]:1788:p.c:23:main:CARACOLA
[DEBUG] [10/08/2006 09/33/47]:1788:p.c:24:main:YEEE
[DEBUG] [10/08/2006 09/33/47]:2960:p.c:22:main:HOLA
[ERROR] [10/08/2006 09/33/47]:2960:p.c:23:main:CARACOLA
[DEBUG] [10/08/2006 09/33/47]:2960:p.c:24:main:YEEE
[DEBUG] [10/08/2006 09/33/47]:2956:p.c:22:main:HOLA
[ERROR] [10/08/2006 09/33/47]:2956:p.c:23:main:CARACOLA
[DEBUG] [10/08/2006 09/33/47]:2956:p.c:24:main:YEEE
[DEBUG] [10/08/2006 09/33/48]:2980:p.c:22:main:HOLA
[ERROR] [10/08/2006 09/33/48]:2980:p.c:23:main:CARACOLA
[DEBUG] [10/08/2006 09/33/48]:2980:p.c:24:main:YEEE
[DEBUG] [10/08/2006 09/33/48]:2940:p.c:22:main:HOLA
[ERROR] [10/08/2006 09/33/48]:2940:p.c:23:main:CARACOLA
[DEBUG] [10/08/2006 09/33/48]:2940:p.c:24:main:YEEE
[DEBUG] [10/08/2006 09/33/48]:2948:p.c:22:main:HOLA
[ERROR] [10/08/2006 09/33/48]:2948:p.c:23:main:CARACOLA
[DEBUG] [10/08/2006 09/33/48]:2948:p.c:24:main:YEEE
[DEBUG] [10/08/2006 09/33/48]:2964:p.c:22:main:HOLA
[ERROR] [10/08/2006 09/33/48]:2964:p.c:23:main:CARACOLA
[DEBUG] [10/08/2006 09/33/48]:2964:p.c:24:main:YEEE
[DEBUG] [10/08/2006 09/33/49]:2924:p.c:22:main:HOLA
[ERROR] [10/08/2006 09/33/49]:2924:p.c:23:main:CARACOLA
[DEBUG] [10/08/2006 09/33/49]:2924:p.c:24:main:YEEE
[DEBUG] [10/08/2006 09/33/49]:2868:p.c:22:main:HOLA
[ERROR] [10/08/2006 09/33/49]:2868:p.c:23:main:CARACOLA
[DEBUG] [10/08/2006 09/33/49]:2868:p.c:24:main:YEEE
[DEBUG] [10/08/2006 09/33/49]:1712:p.c:22:main:HOLA
[ERROR] [10/08/2006 09/33/49]:1712:p.c:23:main:CARACOLA
[DEBUG] [10/08/2006 09/33/49]:1712:p.c:24:main:YEEE
[DEBUG] [10/08/2006 09/33/49]:1944:p.c:22:main:HOLA
[ERROR] [10/08/2006 09/33/49]:1944:p.c:23:main:CARACOLA
[DEBUG] [10/08/2006 09/33/49]:1944:p.c:24:main:YEEE
[DEBUG] [10/08/2006 09/33/50]:2996:p.c:22:main:HOLA
[ERROR] [10/08/2006 09/33/50]:2996:p.c:23:main:CARACOLA
[DEBUG] [10/08/2006 09/33/50]:2996:p.c:24:main:YEEE
[DEBUG] [10/08/2006 09/33/50]:2796:p.c:22:main:HOLA
[ERROR] [10/08/2006 09/33/50]:2796:p.c:23:main:CARACOLA
[DEBUG] [10/08/2006 09/33/50]:2796:p.c:24:main:YEEE
[DEBUG] [10/08/2006 09:34:13]:3016:p.c:22:main:HOLA
[ERROR] [10/08/2006 09:34:13]:3016:p.c:23:main:CARACOLA
[DEBUG] [10/08/2006 09:34:13]:3016:p.c:24:main:YEEE
[DEBUG] [10/08/2006 09:34:16]:3000:p.c:22:main:HOLA
[ERROR] [10/08/2006 09:34:16]:3000:p.c:23:main:CARACOLA
[DEBUG] [10/08/2006 09:34:16]:3000:p.c:24:main:YEEE
[DEBUG] [10/08/2006 09:34:17]:3180:p.c:22:main:HOLA
[ERROR] [10/08/2006 09:34:17]:3180:p.c:23:main:CARACOLA
[DEBUG] [10/08/2006 09:34:17]:3180:p.c:24:main:YEEE
